D:\My Traninng\Loginapp\Loginapp
--output-path=obj\Release\netcoreapp2.0\
--application-name=Loginapp
--content-root=D:\My Traninng\Loginapp\Loginapp
--file=D:\My Traninng\Loginapp\Loginapp\Pages\About.cshtml
--file=D:\My Traninng\Loginapp\Loginapp\Pages\Contact.cshtml
--file=D:\My Traninng\Loginapp\Loginapp\Pages\Error.cshtml
--file=D:\My Traninng\Loginapp\Loginapp\Pages\Index.cshtml
--file=D:\My Traninng\Loginapp\Loginapp\Pages\_Layout.cshtml
--file=D:\My Traninng\Loginapp\Loginapp\Pages\_ValidationScriptsPartial.cshtml
--file=D:\My Traninng\Loginapp\Loginapp\Pages\_ViewImports.cshtml
--file=D:\My Traninng\Loginapp\Loginapp\Pages\_ViewStart.cshtml
